﻿<?xml version="1.0" encoding="utf-8"?>
<!-- Generator: Adobe Illustrator 13.0.0, SVG Export Plug-In . SVG Version: 6.00 Build 14948)  -->
<!DOCTYPE svg PUBLIC "-//W3C//DTD SVG 1.0//EN" "http://www.w3.org/TR/2001/REC-SVG-20010904/DTD/svg10.dtd">
<svg version="1.0"
	 id="Layer_1" xmlns:dc="http://purl.org/dc/elements/1.1/" xmlns:cc="http://creativecommons.org/ns#" xmlns:rdf="http://www.w3.org/1999/02/22-rdf-syntax-ns#" xmlns:svg="http://www.w3.org/2000/svg" xmlns:sodipodi="http://sodipodi.sourceforge.net/DTD/sodipodi-0.dtd" xmlns:inkscape="http://www.inkscape.org/namespaces/inkscape" inkscape:version="0.48.4 r9939" sodipodi:docname="07_dettaglio_evacuazione.svg"
	 xmlns="http://www.w3.org/2000/svg" xmlns:xlink="http://www.w3.org/1999/xlink" x="0px" y="0px" width="744.094px"
	 height="1052.361px" viewBox="0 0 744.094 1052.361" enable-background="new 0 0 744.094 1052.361" xml:space="preserve">
<text transform="matrix(1 0 0 1 36.3962 47.9128)" font-family="'Lato-Bold'" font-size="10">Protezione Beni Culturali</text>
<text transform="matrix(1 0 0 1 36.3962 59.9119)" font-family="'Lato-Bold'" font-size="10">Protezione Civile</text>
<text transform="matrix(1 0 0 1 36.3962 71.9119)" font-family="'Lato-Bold'" font-size="10">Locarno e Vallemaggia</text>
<text transform="matrix(1 0 0 1 356.0476 56.699)" font-family="'Lato'" font-size="23">Foglio di dettaglio - Evacuazione</text>
<text transform="matrix(1 0 0 1 36.3962 161.616)" font-family="'Lato-Bold'" font-size="10">Num. ogg.</text>
<text transform="matrix(1 0 0 1 154.0891 161.616)" font-family="'Lato-Bold'" font-size="10">Oggetto da evacuare</text>
<text transform="matrix(1 0 0 1 661.387 162.5388)" font-family="'Lato-Bold'" font-size="11">Priorità</text>
<text transform="matrix(1 0 0 1 36.3982 182.7693)" font-family="'Lato-Bold'" font-size="11">?OA_NOPCI</text>
<text transform="matrix(1 0 0 1 154.0911 182.782)" font-family="'Lato'" font-size="14">?OA_GENERE ?OA_DENOMINAZIONE</text>
<text transform="matrix(1 0 0 1 36.3962 209.8064)" font-family="'Lato-Bold'" font-size="10">Stato oggetto</text>
<text transform="matrix(1 0 0 1 154.0891 209.8064)" font-family="'Lato-Bold'" font-size="10">Ubicazione</text>
<text transform="matrix(1 0 0 1 434.3831 212.5056)" font-family="'Lato-Bold'" font-size="10">Pezzi</text>
<text transform="matrix(1 0 0 1 491.0276 212.5056)" font-family="'Lato-Bold'" font-size="10">Alt. (cm)</text>
<text transform="matrix(1 0 0 1 547.6799 212.5056)" font-family="'Lato-Bold'" font-size="10">Lar. (cm)</text>
<text transform="matrix(1 0 0 1 604.5315 212.5056)" font-family="'Lato-Bold'" font-size="10">Pro. (cm)</text>
<text transform="matrix(1 0 0 1 661.385 212.5056)" font-family="'Lato-Bold'" font-size="10">Tot. Kg</text>
<text transform="matrix(1 0 0 1 36.3962 234.5554)" font-family="'Lato'" font-size="10">Strutturale: ?OA_CONSSTRUTTURALE</text>
<text transform="matrix(1 0 0 1 36.3962 222.4402)" font-family="'Lato'" font-size="10">Formale: ?OA_CONSFORMALE</text>

<text transform="matrix(1 0 0 1 154.0891 222.4402)">
<tspan x="0" y="0" font-family="'Lato'" font-size="10">?OA_COLLOCAZIONE_1</tspan>
<tspan x="0" y="11" font-family="'Lato'" font-size="10">?OA_COLLOCAZIONE_2</tspan>
</text>

<text transform="matrix(1 0 0 1 434.3811 234.5554)" font-family="'Lato'" font-size="10">?OA_QUANTITA</text>
<text transform="matrix(1 0 0 1 491.0256 234.5554)" font-family="'Lato'" font-size="10">?OA_MISALTEZZA</text>
<text transform="matrix(1 0 0 1 547.678 234.5554)" font-family="'Lato'" font-size="10">?OA_MISLARGHEZZA</text>
<text transform="matrix(1 0 0 1 604.5295 234.5554)" font-family="'Lato'" font-size="10">?OA_MISPROFONDITA</text>
<text transform="matrix(1 0 0 1 661.385 234.5554)" font-family="'Lato'" font-size="10">?OA_MISPESO</text>
<text transform="matrix(1 0 0 1 36.3958 826.113)" font-family="'Lato-Bold'" font-size="10">Note oggetto</text>
<text transform="matrix(1 0 0 1 36.3958 839.7693)" font-family="'Lato'" font-size="10">?OA_NOTE_1</text>
<text transform="matrix(1 0 0 1 36.3958 852.908)" font-family="'Lato'" font-size="10">?OA_NOTE_2</text>
<text transform="matrix(1 0 0 1 36.3958 883.4177)" font-family="'Lato-Bold'" font-size="10">Elementi distintivi</text>
<text transform="matrix(1 0 0 1 36.3958 910.3201)" font-family="'Lato'" font-size="10">?OA_ED1DESCRIZIONE</text>
<text transform="matrix(1 0 0 1 36.3958 897.1277)" font-family="'Lato'" font-size="10">?OA_ED1TIPO ?OA_ED1POSIZIONE ?OA_ED1TECNICA</text>
<text transform="matrix(1 0 0 1 434.3772 883.4177)" font-family="'Lato-Bold'" font-size="10">Artista</text>
<text transform="matrix(1 0 0 1 501.553 883.4177)" font-family="'Lato-Bold'" font-size="10">?OA_AUTORE</text>
<text transform="matrix(1 0 0 1 434.3772 896.6101)" font-family="'Lato-Bold'" font-size="10">Datazione</text>
<text transform="matrix(1 0 0 1 501.553 897.1277)" font-family="'Lato'" font-size="10">?OA_DATAZIONE</text>
<text transform="matrix(1 0 0 1 434.3772 909.8025)" font-family="'Lato-Bold'" font-size="10">N. UBC</text>
<text transform="matrix(1 0 0 1 501.553 910.3201)" font-family="'Lato'" font-size="10">?OA_NOUBC</text>

<text transform="matrix(1 0 0 1 434.3772 826.2468)">
<tspan x="0" y="0" font-family="'Lato-Bold'" font-size="10">Materia e tecnica</tspan>
<tspan x="0" y="11" font-family="'Lato'" font-size="10">?OA_MATERIAETECNICA_1</tspan>
<tspan x="0" y="22" font-family="'Lato'" font-size="10">?OA_MATERIAETECNICA_2</tspan>
</text>

<text transform="matrix(1 0 0 1 36.3958 953.7849)" font-family="'Lato'" font-size="10">?OA_PCIOSSERVAZIONI</text>
<text transform="matrix(1 0 0 1 36.3958 940.6687)" font-family="'Lato-Bold'" font-size="10">Nota tecnica e materiale di evacuazione</text>
<text transform="matrix(1 0 0 1 36.3958 966.9216)" font-family="'Lato'" font-size="10">?OA_PCIMATERIALE</text>
<text transform="matrix(1 0 0 1 36.3958 980.0583)" font-family="'Lato'" font-size="10">?OA_PCIATTREZZI</text>
<text transform="matrix(1 0 0 1 36.3962 113.9636)" font-family="'Lato-Bold'" font-size="10">Numero Bene Culturale</text>
<text transform="matrix(1 0 0 1 154.0891 113.9636)" font-family="'Lato-Bold'" font-size="10">Categoria</text>
<text transform="matrix(1 0 0 1 233.5422 113.9636)" font-family="'Lato-Bold'" font-size="10">Bene Culturale</text>
<text transform="matrix(1 0 0 1 547.6663 113.9636)" font-family="'Lato-Bold'" font-size="10">Comune</text>
<text transform="matrix(1 0 0 1 36.3982 132.1433)" font-family="'Lato-Bold'" font-size="14">?A_NOPCI</text>
<text transform="matrix(1 0 0 1 154.0911 132.1433)" font-family="'Lato-Bold'" font-size="14">?A_CAT</text>
<text transform="matrix(1 0 0 1 233.5442 132.1433)" font-family="'Lato-Bold'" font-size="14">?A_DENOMINAZIONE</text>
<text transform="matrix(1 0 0 1 547.6663 132.1375)" font-family="'Lato'" font-size="10">?A_COMUNE</text>
<text transform="matrix(1 0 0 1 36.3835 1014.824)" font-family="'Lato'" font-size="10">?DATA</text>
<text text-anchor="end" transform="matrix(1 0 0 1 709 1014.824)" fill="#000000" font-family="'Lato'" font-size="10">Pagina ?PAGINA di ?TOTPAGINA</text>
<polyline fill="none" stroke="?OA_PRIORITARIO" stroke-width="2" points="663.967,176.616 669.008,181.54 675.44,166.043 "/>
<polyline fill="none" stroke="#000000" stroke-width="0.3" stroke-miterlimit="10" points="36.399,33.333 343.637,33.333 343.637,91.177 "/>
<polyline fill="none" stroke="#000000" stroke-width="0.3" stroke-miterlimit="10" points="356.05,33.333 709.609,33.333 709.609,91.177 "/>
<polyline fill="none" stroke="#000000" stroke-width="1.5" stroke-miterlimit="10" points="36.683,250.941 708.363,250.941 708.363,797.196 "/>
<polyline fill="none" stroke="#000000" stroke-width="0.3" stroke-miterlimit="10" points="154.091,195.196 425.973,195.196 425.973,242.779 "/>
<polyline fill="none" stroke="#000000" stroke-width="0.3" stroke-miterlimit="10" points="36.399,195.196 145.768,195.196 145.768,242.779 "/>
<polyline fill="none" stroke="#000000" stroke-width="0.3" stroke-miterlimit="10" points="434.383,195.196 482.68,195.196 482.68,242.779 "/>
<polyline fill="none" stroke="#000000" stroke-width="0.3" stroke-miterlimit="10" points="491.028,195.196 539.328,195.196 539.328,242.779 "/>
<polyline fill="none" stroke="#000000" stroke-width="0.3" stroke-miterlimit="10" points="547.678,195.196 596.182,195.196 596.182,242.779 "/>
<polyline fill="none" stroke="#000000" stroke-width="0.3" stroke-miterlimit="10" points="604.531,195.196 653.036,195.196 653.036,242.779 "/>
<polyline fill="none" stroke="#000000" stroke-width="0.3" stroke-miterlimit="10" points="661.386,195.196 709.609,195.196 709.609,242.779 "/>
<polyline fill="none" stroke="#000000" stroke-width="0.3" stroke-miterlimit="10" points="434.379,811.476 709.613,811.476 709.613,850.089 "/>
<polyline fill="none" stroke="#000000" stroke-width="0.3" stroke-miterlimit="10" points="36.397,868.647 425.97,868.647 425.97,911.661 "/>
<polyline fill="none" stroke="#000000" stroke-width="0.3" stroke-miterlimit="10" points="434.379,868.647 709.617,868.647 709.617,911.661 "/>
<polyline fill="none" stroke="#000000" stroke-width="0.3" stroke-miterlimit="10" points="36.397,926.061 709.613,926.061 709.613,980.056 "/>
<polyline fill="none" stroke="#000000" stroke-width="0.3" stroke-miterlimit="10" points="547.668,99.34 709.609,99.34 709.609,136.289 "/>
<polyline fill="none" stroke="#000000" stroke-width="0.3" stroke-miterlimit="10" points="36.403,99.34 539.318,99.34 539.318,136.289 "/>
<polyline fill="none" stroke="#000000" stroke-width="0.3" stroke-miterlimit="10" points="154.091,146.951 653.036,146.951 653.036,184.425 "/>
<polyline fill="none" stroke="#000000" stroke-width="0.3" stroke-miterlimit="10" points="36.399,146.951 145.762,146.951 145.762,183.935 "/>
<polyline fill="none" stroke="#000000" stroke-width="0.3" stroke-miterlimit="10" points="661.387,146.951 709.609,146.951 709.609,183.935 "/>
<polyline fill="none" stroke="#000000" stroke-width="0.3" stroke-miterlimit="10" points="36.4,811.5 426,811.5 426,850.1 "/>
<rect x="661.387" y="169.897" fill="none" stroke="#000000" stroke-width="0.375" stroke-miterlimit="10" width="14.527" height="14.525"/>
<image overflow="visible" xlink:href="?IMMAGINE_C" x="37" y="260" height="?IMMAGINE_H" width="?IMMAGINE_W" />
</svg>