<?xml version="1.0" encoding="utf-8"?>
<!DOCTYPE svg PUBLIC "-//W3C//DTD SVG 1.1//EN" "http://www.w3.org/Graphics/SVG/1.1/DTD/svg11.dtd">
<svg version="1.1" id="Livello_1" xmlns="http://www.w3.org/2000/svg" xmlns:xlink="http://www.w3.org/1999/xlink" x="0px" y="0px" viewBox="0 0 1000 1000" enable-background="new 0 0 1000 1000" xml:space="preserve">
<polygon fill="#FFFFFF" stroke="#000000" stroke-width="1.6" stroke-linecap="round" stroke-linejoin="round" stroke-miterlimit="282" points="977.3,583.1 922.7,601.2 922.7,601.2 409.3,504.1 469.5,486.2 "/>
<polygon fill="#FFFFFF" stroke="#000000" stroke-width="1.6" stroke-linecap="round" stroke-linejoin="round" stroke-miterlimit="282" points="977.3,583.1 922.7,601.2 922.7,601.2 922.6,833 977.3,815.1 "/>
<polygon fill="#FFFFFF" stroke="#000000" stroke-width="1.6" stroke-linecap="round" stroke-linejoin="round" stroke-miterlimit="282" points="922.7,601.2 409.3,504.1 409.3,504.1 409.3,735.6 922.7,833 "/>
<polygon fill="#FFFFFF" stroke="#000000" stroke-width="1.6" stroke-linecap="round" stroke-linejoin="round" stroke-miterlimit="282" points="916.1,789.9 608.3,886.6 608.3,886.6 90.8,789.3 418.1,683.9 "/>
<polygon fill="#FFFFFF" stroke="#000000" stroke-width="1.6" stroke-linecap="round" stroke-linejoin="round" stroke-miterlimit="282" points="916.1,789.9 608.3,886.6 608.3,886.6 608.3,927.7 916.1,831.1 "/>
<polygon fill="#FFFFFF" stroke="#000000" stroke-width="1.6" stroke-linecap="round" stroke-linejoin="round" stroke-miterlimit="282" points="608.3,886.6 90.8,789.3 90.8,789.3 90.8,830.1 608.3,927.7 "/>
<polygon fill="#FFFFFF" stroke="#000000" stroke-width="1.6" stroke-linecap="round" stroke-linejoin="round" stroke-miterlimit="282" points="833.4,116 778.3,134.1 778.3,134.1 497,81.2 556.4,63.3 "/>
<polygon fill="#FFFFFF" stroke="#000000" stroke-width="1.6" stroke-linecap="round" stroke-linejoin="round" stroke-miterlimit="282" points="833.4,116 778.3,134.1 778.3,134.1 778.3,573.7 833.4,555.8 "/>
<polygon fill="#FFFFFF" stroke="#000000" stroke-width="1.6" stroke-linecap="round" stroke-linejoin="round" stroke-miterlimit="282" points="778.3,134.1 497,81.2 497,81.2 497,520.5 778.3,573.7 "/>
<polygon fill="#FFFFFF" stroke="#000000" stroke-width="1.6" stroke-linecap="round" stroke-linejoin="round" stroke-miterlimit="282" points="820.5,618.9 718.4,650.5 718.4,650.5 439,599.5 545.4,568 "/>
<polygon fill="#FFFFFF" stroke="#000000" stroke-width="1.6" stroke-linecap="round" stroke-linejoin="round" stroke-miterlimit="282" points="820.5,618.9 718.4,650.5 718.4,650.5 718.3,801 820.5,769.5 "/>
<polygon fill="#FFFFFF" stroke="#000000" stroke-width="1.6" stroke-linecap="round" stroke-linejoin="round" stroke-miterlimit="282" points="718.4,650.5 439,599.5 439,599.5 439,749.8 718.4,801.1 "/>
<polygon fill="#FFFFFF" stroke="#000000" stroke-width="1.6" stroke-linecap="round" stroke-linejoin="round" stroke-miterlimit="282" points="695.3,488.6 653.9,501.6 653.9,501.6 577.8,487.7 620.3,474.8 "/>
<polygon fill="#FFFFFF" stroke="#000000" stroke-width="1.6" stroke-linecap="round" stroke-linejoin="round" stroke-miterlimit="282" points="695.3,488.6 653.9,501.6 653.9,501.6 653.9,608.3 695.3,595.3 "/>
<polygon fill="#FFFFFF" stroke="#000000" stroke-width="1.6" stroke-linecap="round" stroke-linejoin="round" stroke-miterlimit="282" points="653.9,501.6 577.8,487.7 577.8,487.7 577.8,594.3 653.9,608.3 "/>
<path fill="#FFFFFF" stroke="#000000" stroke-width="1.6" stroke-miterlimit="282" d="M722,635.9"/>
<path fill="#FFFFFF" stroke="#000000" stroke-width="1.6" stroke-miterlimit="282" d="M714.4,628.3"/>
<path fill="#FFFFFF" stroke="#000000" stroke-width="1.6" stroke-linecap="round" stroke-linejoin="round" stroke-miterlimit="282" d="M640.3,536.7c-0.6-15-12.2-28.8-26.3-31.3c-14.1-2.4-25.6,7.5-26.3,22.2l-0.2,0v60.6l52.9,9.1v-60.6L640.3,536.7z"/>
<line fill="none" stroke="#000000" x1="68.1" y1="788.8" x2="68.1" y2="830.1"/>
<line fill="none" stroke="#000000" x1="854.7" y1="116" x2="854.7" y2="556.2"/>
<line fill="none" stroke="#000000" x1="89.5" y1="862.9" x2="610.1" y2="961.6"/>
<line fill="none" stroke="#000000" x1="496.9" y1="366.2" x2="778" y2="418"/>
<line fill="none" stroke="#000000" x1="409.3" y1="296" x2="921" y2="389.5"/>
<line fill="none" stroke="#000000" x1="555.3" y1="43.6" x2="496.3" y2="61.6"/>
<line fill="none" stroke="#000000" x1="504.3" y1="54.3" x2="487.8" y2="69.4"/>
<line fill="none" stroke="#000000" x1="496" y1="51.2" x2="496" y2="72.5"/>
<line fill="none" stroke="#000000" x1="915.3" y1="869.4" x2="609.9" y2="961.6"/>
<line fill="none" stroke="#000000" x1="554.6" y1="486.8" x2="554.6" y2="593.8"/>
<line fill="none" stroke="#000000" x1="733.4" y1="651.1" x2="733.4" y2="801.3"/>
<line fill="none" stroke="#000000" x1="576.7" y1="610.1" x2="654.1" y2="624.5"/>
<line fill="none" stroke="#000000" x1="820.5" y1="601.1" x2="718.1" y2="632.2"/>
<line fill="none" stroke="#000000" x1="710.1" y1="639.5" x2="726.5" y2="624.3"/>
<line fill="none" stroke="#000000" x1="718.3" y1="642.6" x2="718.3" y2="621.2"/>
<line fill="none" stroke="#000000" x1="695" y1="575.6" x2="654.5" y2="587.9"/>
<line fill="none" stroke="#000000" x1="439.2" y1="656.1" x2="718.7" y2="707.4"/>
<line fill="none" stroke="#000000" x1="98.2" y1="855.5" x2="81.7" y2="870.6"/>
<line fill="none" stroke="#000000" x1="89.9" y1="852.3" x2="89.9" y2="873.7"/>
<line fill="none" stroke="#000000" x1="617.7" y1="954" x2="601.3" y2="969.1"/>
<line fill="none" stroke="#000000" x1="609.5" y1="950.9" x2="609.5" y2="972.2"/>
<line fill="none" stroke="#000000" x1="923.5" y1="861.8" x2="907.1" y2="876.9"/>
<line fill="none" stroke="#000000" x1="915.3" y1="858.7" x2="915.3" y2="880"/>
<line fill="none" stroke="#000000" x1="75.7" y1="796.9" x2="60.6" y2="780.4"/>
<line fill="none" stroke="#000000" x1="78.8" y1="788.7" x2="57.5" y2="788.7"/>
<line fill="none" stroke="#000000" x1="75.7" y1="838.3" x2="60.6" y2="821.8"/>
<line fill="none" stroke="#000000" x1="78.8" y1="830" x2="57.5" y2="830"/>
<line fill="none" stroke="#000000" x1="929.2" y1="382.2" x2="912.8" y2="397.3"/>
<line fill="none" stroke="#000000" x1="921" y1="379.1" x2="921" y2="400.4"/>
<line fill="none" stroke="#000000" x1="786.5" y1="410.4" x2="770" y2="425.5"/>
<line fill="none" stroke="#000000" x1="778.2" y1="407.3" x2="778.2" y2="428.7"/>
<line fill="none" stroke="#000000" x1="505.2" y1="359.1" x2="488.7" y2="374.2"/>
<line fill="none" stroke="#000000" x1="496.9" y1="355.9" x2="496.9" y2="377.3"/>
<line fill="none" stroke="#000000" x1="417.6" y1="288.4" x2="401.1" y2="303.6"/>
<line fill="none" stroke="#000000" x1="409.3" y1="285.3" x2="409.3" y2="306.7"/>
<line fill="none" stroke="#000000" x1="563.5" y1="36.1" x2="547" y2="51.2"/>
<line fill="none" stroke="#000000" x1="555.2" y1="33" x2="555.2" y2="54.3"/>
<line fill="none" stroke="#000000" x1="847.1" y1="107.7" x2="862.2" y2="124.2"/>
<line fill="none" stroke="#000000" x1="844" y1="116" x2="865.3" y2="116"/>
<line fill="none" stroke="#000000" x1="847.1" y1="547.4" x2="862.2" y2="563.9"/>
<line fill="none" stroke="#000000" x1="844" y1="555.7" x2="865.4" y2="555.7"/>
<line fill="none" stroke="#000000" x1="812.3" y1="608.7" x2="828.8" y2="593.6"/>
<line fill="none" stroke="#000000" x1="820.6" y1="611.8" x2="820.6" y2="590.5"/>
<line fill="none" stroke="#000000" x1="710.1" y1="714.3" x2="726.5" y2="699.2"/>
<line fill="none" stroke="#000000" x1="718.3" y1="717.4" x2="718.3" y2="696"/>
<line fill="none" stroke="#000000" x1="430.7" y1="663.7" x2="447.2" y2="648.6"/>
<line fill="none" stroke="#000000" x1="439" y1="666.8" x2="439" y2="645.5"/>
<line fill="none" stroke="#000000" x1="741.3" y1="659.6" x2="726.2" y2="643.1"/>
<line fill="none" stroke="#000000" x1="744.4" y1="651.3" x2="723.1" y2="651.3"/>
<line fill="none" stroke="#000000" x1="741" y1="809.6" x2="725.9" y2="793.2"/>
<line fill="none" stroke="#000000" x1="744.1" y1="801.4" x2="722.8" y2="801.4"/>
<line fill="none" stroke="#000000" x1="686.9" y1="583" x2="703.4" y2="567.9"/>
<line fill="none" stroke="#000000" x1="695.1" y1="586.2" x2="695.1" y2="564.8"/>
<line fill="none" stroke="#000000" x1="645.6" y1="595.7" x2="662.1" y2="580.6"/>
<line fill="none" stroke="#000000" x1="653.9" y1="598.8" x2="653.9" y2="577.5"/>
<line fill="none" stroke="#000000" x1="562.3" y1="602.2" x2="547.2" y2="585.7"/>
<line fill="none" stroke="#000000" x1="565.4" y1="594" x2="544.1" y2="594"/>
<line fill="none" stroke="#000000" x1="576.9" y1="621.6" x2="576.9" y2="599.3"/>
<line fill="none" stroke="#000000" x1="584.5" y1="617.9" x2="569.4" y2="602.8"/>
<line fill="none" stroke="#000000" x1="562.1" y1="495" x2="547" y2="478.6"/>
<line fill="none" stroke="#000000" x1="565.2" y1="486.8" x2="543.9" y2="486.8"/>
<line fill="none" stroke="#000000" x1="654" y1="635.6" x2="654" y2="613.3"/>
<line fill="none" stroke="#000000" x1="661.6" y1="632" x2="646.5" y2="616.9"/>
<text transform="matrix(1 0 0 1 327.7583 936.9944)" font-family="'Lato'" font-size="17" id="pci_a">A</text>
<text transform="matrix(1 0 0 1 21.2817 813.7813)" font-family="'Lato'" font-size="17" id="pci_b">B</text>
<text transform="matrix(1 0 0 1 776.6226 941.9265)" font-family="'Lato'" font-size="17" id="pci_c">C</text>
<text transform="matrix(1 0 0 1 739.3374 721.9956)" font-family="'Lato'" font-size="17" id="pci_d">D</text>
<text transform="matrix(1 0 0 1 556.2085 702.7722)" font-family="'Lato'" font-size="17" id="pci_e">E</text>
<text transform="matrix(1.0215 0.1917 -1.182000e-002 0.9999 594.3757 643.397)" font-family="'Lato'" font-size="15" id="pci_f">F</text>
<text transform="matrix(1 -0.3247 0 1 748.6815 637.1204)" font-family="'Lato'" font-size="15.3861" id="pci_g">G</text>
<text transform="matrix(1 0 0 1 657.0063 573.4973)" font-family="'Lato'" font-size="17" id="pci_h">H</text>
<text transform="matrix(1 0 0 1 511.0327 553.9131)" font-family="'Lato'" font-size="17" id="pci_i">I</text>
<text transform="matrix(1 0 0 1 622.4526 423.5115)" font-family="'Lato'" font-size="17" id="pci_j">J</text>
<text transform="matrix(1 0 0 1 614.7397 322.6318)" font-family="'Lato'" font-size="17" id="pci_k">K</text>
<text transform="matrix(1 0 0 1 506.0339 43.7776)" font-family="'Lato'" font-size="17" id="pci_l">L</text>
<text transform="matrix(1 0 0 1 861.9419 304.8672)" font-family="'Lato'" font-size="17" id="pci_m">M</text>
</svg>